Building multivariate visualizations with ggplot2
…
```r
daily <- daily %>%
  mutate(
    day = if_else(day_of_week %in% c("Sat", "Sun"), "Weekend", "Weekday"),
    temp = if_else(month %in% c("Jan", "Feb", "Mar", "Dec", "Nov", "Oct"),
                   "Cooler", "Warmer")
    ) %>%
  select(day, temp, everything())

daily
```

```
## # A tibble: 364 x 9
##    day   temp  ride_date  day_of_week month n_rides n_riders n_unique_stops
##    <chr> <chr> <date>     <fct>       <chr>   <dbl>    <dbl>          <dbl>
##  1 Week… Cool… 2015-01-01 Thurs       Jan        58       37             44
##  2 Week… Cool… 2015-01-02 Fri         Jan       134       83             93
##  3 Week… Cool… 2015-01-03 Sat         Jan       145       84            100
##  4 Week… Cool… 2015-01-04 Sun         Jan       101       57             63
##  5 Week… Cool… 2015-01-05 Mon         Jan       182      117            109
##  6 Week… Cool… 2015-01-06 Tues        Jan       267      138            146
##  7 Week… Cool… 2015-01-07 Wed         Jan       243      157            129
##  8 Week… Cool… 2015-01-08 Thurs       Jan       235      154            141
##  9 Week… Cool… 2015-01-09 Fri         Jan       268      173            147
## 10 Week… Cool… 2015-01-10 Sat         Jan       198      114            116
## # … with 354 more rows, and 1 more variable: n_unique_routes <dbl>
```
…
---

## Durham voters

```r
durham_voters %>%
  select(race_code, gender_code, age)
```

```
## # A tibble: 204,063 x 3
##    race_code gender_code age        
##    <chr>     <chr>       <chr>      
##  1 I         M           Age Over 66
##  2 U         U           Age 18 - 25
##  3 O         F           Age 41 - 65
##  4 W         F           Age 41 - 65
##  5 W         M           Age 41 - 65
##  6 B         M           Age 26 - 40
##  7 W         F           Age 41 - 65
##  8 W         M           Age 26 - 40
##  9 B         F           Age 41 - 65
## 10 B         M           Age 41 - 65
## # … with 204,053 more rows
```

---

## Data prep

```r
durham_voters %>%
  group_by(race_code, gender_code, age) %>%
  summarize(n_voters = n(), n_rep = sum(party == "REP"))
```

```
## # A tibble: 92 x 5
## # Groups:   race_code, gender_code [21]
##    race_code gender_code age                            n_voters n_rep
##    <chr>     <chr>       <chr>                             <int> <int>
##  1 A         F           Age < 18 Or Invalid Birth Date        2     0
##  2 A         F           Age 18 - 25                         751    35
##  3 A         F           Age 26 - 40                        1086    64
##  4 A         F           Age 41 - 65                         727    75
##  5 A         F           Age Over 66                         170    36
##  6 A         M           Age 18 - 25                         635    42
##  7 A         M           Age 26 - 40                         919    64
##  8 A         M           Age 41 - 65                         572    61
##  9 A         M           Age Over 66                         175    33
## 10 A         U           Age 18 - 25                           8     1
## # … with 82 more rows
```
…
```r
durham_voters_summary <- durham_voters %>%
  group_by(race_code, gender_code, age) %>%
  summarize(n_all_voters = n(), 
            n_rep_voters = sum(party == "REP")) %>%
  filter(gender_code %in% c("F", "M") & 
         race_code %in% c("W", "B", "A") &
         age != "Age < 18 Or Invalid Birth Date")

durham_voters_summary
```

```
## # A tibble: 24 x 5
## # Groups:   race_code, gender_code [6]
##    race_code gender_code age         n_all_voters n_rep_voters
##    <chr>     <chr>       <chr>              <int>        <int>
##  1 A         F           Age 18 - 25          751           35
##  2 A         F           Age 26 - 40         1086           64
##  3 A         F           Age 41 - 65          727           75
##  4 A         F           Age Over 66          170           36
##  5 A         M           Age 18 - 25          635           42
##  6 A         M           Age 26 - 40          919           64
##  7 A         M           Age 41 - 65          572           61
##  8 A         M           Age Over 66          175           33
##  9 B         F           Age 18 - 25         7446          133
## 10 B         F           Age 26 - 40        13686          203
## # … with 14 more rows
```
…
